http://3dteapot.co.uk	9	http://dbpedia.org/resource/TangoCMS
http://blog.stevensanderson.com	9	http://dbpedia.org/resource/KnockoutJS
http://bourbon.usc.edu/william/	9	http://dbpedia.org/resource/Tgif_(program)
http://chemistry.stanford.edu/faculty/vijay-pande	9	http://dbpedia.org/resource/Folding@home
http://christobelmattingley.wordpress.com/	9	http://dbpedia.org/resource/Battle_order_204
http://com.miami.edu/Faculty-Staff/Grinfeder.htm	 9	http://dbpedia.org/resource/Willakuy
http://cs.waikato.ac.nz/~sspacey	 9	http://dbpedia.org/resource/OpenPAT
http://dbpedia.org/resource/!PAUS3	1	!PAUS3
http://dbpedia.org/resource/!PAUS3	4	1986-07-27
http://dbpedia.org/resource/!PAUS3	5	http://dbpedia.org/resource/Odessa
http://dbpedia.org/resource/!PAUS3	5	http://dbpedia.org/resource/Ukraine
http://dbpedia.org/resource/!PAUS3	8	Ukrainian musician
http://dbpedia.org/resource/%22Bassy%22_Bob_Brockmann	1	Bassy Bob Brockmann
http://dbpedia.org/resource/%22Bassy%22_Bob_Brockmann	2	Bassy Bob
http://dbpedia.org/resource/%22Bassy%22_Bob_Brockmann	3	Brockmann
http://dbpedia.org/resource/%22Bassy%22_Bob_Brockmann	8	American musician
http://dbpedia.org/resource/%22Bassy%22_Bob_Brockmann	9	American musician
http://dbpedia.org/resource/%22Dr._Death%22_Steve_Williams	1	Steve Williams
http://dbpedia.org/resource/%22Dr._Death%22_Steve_Williams	2	Steve
http://dbpedia.org/resource/%22Dr._Death%22_Steve_Williams	3	Williams
http://dbpedia.org/resource/%22Dr._Death%22_Steve_Williams	4	1960-05-14
