{"name":[{"a":"Role","name":"John Doe"},{"a":"Role","name":"John Doe 2"}],"birthYear":{"a":"Role","birthYear":"2015"},"sameAs":[{"a":"Role","sameAs":"http://vocab.getty.edu/ulan/1"}],"uri":"http://isi.edu/knowledgGraph/entity/1"}
{"name":[{"a":"Role","name":"John Doe"},{"a":"Role","name":"John Doe 2"}],"birthYear":{"a":"Role","birthYear":"2015"},"sameAs":[{"a":"Role","sameAs":"http://edan.si.edu/saam/id/person-institution/2"}],"uri":"http://isi.edu/knowledgGraph/entity/2"}
{"name":[{"a":"Role","name":"John Doe"},{"a":"Role","name":"John Doe 2"}],"birthYear":{"a":"Role","birthYear":"2015"},"sameAs":[{"a":"Role","sameAs":"http://edan.si.edu/saam/id/person-institution/1"}],"uri":"http://isi.edu/knowledgGraph/entity/11"}
{"numberOfEntities": "1"}