{"@context": {
    "birthYear": {"@id": "http://dbpedia.org/ontology/birthYear"},
    "authorOf": {"@id": "http://schema.org/authorOf"},
    "a": "@type",
    "birthMonth": {"@id": "http://dbpedia.org/ontology/birthMonth"},
    "familyName": {"@id": "http://schema.org/familyName"},
    "deathMonth": {"@id": "http://dbpedia.org/ontology/deathMonth"},
    "label": {"@id": "http://www.w3.org/2000/01/rdf-schema#label"},
    "birthDay": {"@id": "http://dbpedia.org/ontology/birthDay"},
    "givenName": {"@id": "http://schema.org/givenName"},
    "uri": "@id",
    "deathDate": {"@id": "http://schema.org/deathDate"},
    "birthPlace": {"@id": "http://schema.org/birthPlace"},
    "alternateName": {"@id": "http://schema.org/alternateName"},
    "deathPlace": {"@id": "http://schema.org/deathPlace"},
    "deathYear": {"@id": "http://dbpedia.org/ontology/deathYear"},
    "name": {"@id": "http://schema.org/name"},
    "deathDay": {"@id": "http://dbpedia.org/ontology/deathDay"},
    "birthDate": {"@id": "http://schema.org/birthDate"},
    "Person": {
        "@type": "@id",
        "@id": "http://schema.org/Person"
    },
    "CreativeWork": {
        "@type": "@id",
        "@id": "http://schema.org/CreativeWork"
    }
}}
