{"@context": {
    "birthYear": {"@id": "http://dbpedia.org/ontology/birthYear"},
    "deathYear": {"@id": "http://dbpedia.org/ontology/deathYear"},
    "a": "@type",
    "familyName": {"@id": "http://xmlns.com/foaf/0.1/familyName"},
    "firstName": {"@id": "http://xmlns.com/foaf/0.1/firstName"},
    "uri": "@id",
    "Person": {
        "@type": "@id",
        "@id": "http://xmlns.com/foaf/0.1/Person"
    },
    "identifiedBy": {"@id": "http://dbpedia.org/ontology/identifiedBy"}
}}
