{"@context": {
    "name": {"@id": "http://xmlns.com/foaf/0.1/name"},
    "a": "@type",
    "uri": "@id",
    "Person": {
        "@type": "@id",
        "@id": "http://xmlns.com/foaf/0.1/Person"
    }
}}
