{"@context": {
    "deathYear": {"@id": "http://dbpedia.org/ontology/deathYear"},
    "a": "@type",
    "uri": "@id",
    "Person": {
        "@type": "@id",
        "@id": "http://xmlns.com/foaf/0.1/Person"
    }
}}
