{"@context": {
    "lastName": {"@id": "http://xmlns.com/foaf/0.1/lastName"},
    "birthYear": {"@id": "http://dbpedia.org/ontology/birthYear"},
    "deathYear": {"@id": "http://dbpedia.org/ontology/deathYear"},
    "a": "@type",
    "firstName": {"@id": "http://xmlns.com/foaf/0.1/firstName"},
    "uri": "@id",
    "identifiedBy": {"@id": "http://dbpedia.org/ontology/identifiedBy"},
    "Person": {
        "@type": "@id",
        "@id": "http://xmlns.com/foaf/0.1/Person"
    }
}}
