{"@context": {
    "birthYear": {"@id": "http://dbpedia.org/ontology/birthYear"},
    "a": "@type",
    "familyName": {"@id": "http://schema.org/familyName"},
    "givenName": {"@id": "http://schema.org/givenName"},
    "birthPlace": {"@id": "http://schema.org/birthPlace"},
    "uri": "@id",
    "deathPlace": {"@id": "http://schema.org/deathPlace"},
    "nationality": {"@id": "http://schema.org/nationality"},
    "description": {"@id": "http://schema.org/description"},
    "deathYear": {"@id": "http://dbpedia.org/ontology/deathYear"},
    "name": {"@id": "http://schema.org/name"},
    "gender": {"@id": "http://schema.org/gender"},
    "Person": {
        "@type": "@id",
        "@id": "http://schema.org/Person"
    }
}}